%!PS-Adobe-3.0
%%Creator: cairo 1.17.8 (https://cairographics.org)
%%CreationDate: Fri Nov 24 19:45:39 2023
%%Pages: 1
%%DocumentData: Clean7Bit
%%LanguageLevel: 2
%%DocumentMedia: 325x169mm 922 478 0 () ()
%%BoundingBox: 0 0 923 478
%%EndComments
%%BeginProlog
/languagelevel where
{ pop languagelevel } { 1 } ifelse
2 lt { /Helvetica findfont 12 scalefont setfont 50 500 moveto
  (This print job requires a PostScript Language Level 2 printer.) show
  showpage quit } if
/q { gsave } bind def
/Q { grestore } bind def
/cm { 6 array astore concat } bind def
/w { setlinewidth } bind def
/J { setlinecap } bind def
/j { setlinejoin } bind def
/M { setmiterlimit } bind def
/d { setdash } bind def
/m { moveto } bind def
/l { lineto } bind def
/c { curveto } bind def
/h { closepath } bind def
/re { exch dup neg 3 1 roll 5 3 roll moveto 0 rlineto
      0 exch rlineto 0 rlineto closepath } bind def
/S { stroke } bind def
/f { fill } bind def
/f* { eofill } bind def
/n { newpath } bind def
/W { clip } bind def
/W* { eoclip } bind def
/BT { } bind def
/ET { } bind def
/BDC { mark 3 1 roll /BDC pdfmark } bind def
/EMC { mark /EMC pdfmark } bind def
/cairo_store_point { /cairo_point_y exch def /cairo_point_x exch def } def
/Tj { show currentpoint cairo_store_point } bind def
/TJ {
  {
    dup
    type /stringtype eq
    { show } { -0.001 mul 0 cairo_font_matrix dtransform rmoveto } ifelse
  } forall
  currentpoint cairo_store_point
} bind def
/cairo_selectfont { cairo_font_matrix aload pop pop pop 0 0 6 array astore
    cairo_font exch selectfont cairo_point_x cairo_point_y moveto } bind def
/Tf { pop /cairo_font exch def /cairo_font_matrix where
      { pop cairo_selectfont } if } bind def
/Td { matrix translate cairo_font_matrix matrix concatmatrix dup
      /cairo_font_matrix exch def dup 4 get exch 5 get cairo_store_point
      /cairo_font where { pop cairo_selectfont } if } bind def
/Tm { 2 copy 8 2 roll 6 array astore /cairo_font_matrix exch def
      cairo_store_point /cairo_font where { pop cairo_selectfont } if } bind def
/g { setgray } bind def
/rg { setrgbcolor } bind def
/d1 { setcachedevice } bind def
/cairo_data_source {
  CairoDataIndex CairoData length lt
    { CairoData CairoDataIndex get /CairoDataIndex CairoDataIndex 1 add def }
    { () } ifelse
} def
/cairo_flush_ascii85_file { cairo_ascii85_file status { cairo_ascii85_file flushfile } if } def
/cairo_image { image cairo_flush_ascii85_file } def
/cairo_imagemask { imagemask cairo_flush_ascii85_file } def
/cairo_set_page_size {
  % Change paper size, but only if different from previous paper size otherwise
  % duplex fails. PLRM specifies a tolerance of 5 pts when matching paper size
  % so we use the same when checking if the size changes.
  /setpagedevice where {
    pop currentpagedevice
    /PageSize known {
      2 copy
      currentpagedevice /PageSize get aload pop
      exch 4 1 roll
      sub abs 5 gt
      3 1 roll
      sub abs 5 gt
      or
    } {
      true
    } ifelse
    {
      2 array astore
      2 dict begin
        /PageSize exch def
        /ImagingBBox null def
      currentdict end
      setpagedevice
    } {
      pop pop
    } ifelse
  } {
    pop
  } ifelse
} def
%%EndProlog
%%BeginSetup
%%EndSetup
%%Page: 1 1
%%BeginPageSetup
%%PageMedia: 325x169mm
%%PageBoundingBox: 0 0 923 478
923 478 cairo_set_page_size
%%EndPageSetup
q 0 0 923 478 rectclip
1 0 0 -1 0 478 cm q
0 g
0 0 923 478 rectfill
1 g
744.574 159.773 m 752.203 152.145 l 759.828 159.773 l 752.203 167.398 l
 h
744.574 159.773 m f
755.512 170.711 m 763.137 163.082 l 770.766 170.711 l 763.137 178.336 l
 h
755.512 170.711 m f
733.637 170.711 m 741.266 163.082 l 759.828 181.645 l 752.203 189.273 l
 h
733.637 170.711 m f
774.074 211.145 m 763.137 222.082 l 755.512 214.453 l 766.445 203.52 l 
755.512 192.582 l 763.137 184.953 l 774.074 195.891 l 785.012 184.953 l 
792.637 192.582 l 781.699 203.52 l 792.637 214.453 l 785.012 222.082 l h
774.074 211.145 m f
829.75 171.207 m 836.301 171.207 l 836.301 205.004 l 829.75 205.004 l 829.75
 190.207 l 816.215 190.207 l 816.215 205.004 l 809.617 205.004 l 809.617
 171.207 l 816.215 171.207 l 816.215 184.805 l 829.75 184.805 l h
829.75 171.207 m f
865.148 175.602 m 865.176 175.637 865.125 175.566 865.148 175.602 c f
857.277 185.906 m 852.977 184.605 l 850.477 183.805 849.477 182.559 849.477
 180.559 c 849.477 178.105 851.176 176.309 854.277 176.309 c 857.344 176.309
 859.434 177.484 860.688 179.301 c 860.699 179.32 860.98 179.738 860.992
 179.758 c 865.148 175.602 l 863.336 173.043 860.047 170.707 854.277 170.707
 c 845.977 170.707 842.68 175.707 842.68 180.957 c 842.68 185.156 844.777
 188.457 850.676 190.305 c 854.926 191.605 l 857.477 192.406 858.727 193.605
 858.727 195.703 c 858.727 198.254 856.824 199.953 853.379 199.953 c 850.055
 199.953 848.223 198.934 846.988 197.484 c 846.984 197.488 l 846.984 197.488
 846.969 197.465 846.934 197.426 c 846.855 197.328 846.777 197.23 846.703
 197.133 c 846.406 196.746 845.91 196.094 845.402 195.348 c 841.32 199.434
 l 842.742 202.07 846 205.555 853.379 205.555 c 860.426 205.555 865.523 
201.754 865.523 195.203 c 865.523 190.906 863.324 187.805 857.277 185.906
 c f
871.203 171.207 m 882.902 171.207 l 890.949 171.207 894.051 174.809 894.051
 180.105 c 894.051 183.855 892.199 186.156 889.25 187.156 c 892.648 187.957
 895.801 190.605 895.801 195.406 c 895.801 202.504 890.801 205.004 883.051
 205.004 c 871.203 205.004 l h
882.102 184.855 m 885.949 184.855 887.25 183.258 887.25 180.656 c 887.25
 178.207 885.949 176.605 882.051 176.605 c 877.801 176.605 l 877.801 184.855
 l h
882.852 199.605 m 887.301 199.605 888.949 198.004 888.949 194.953 c 888.949
 192.105 887.352 190.254 882.852 190.254 c 877.801 190.254 l 877.801 199.605
 l h
882.852 199.605 m f
Q Q
showpage
%%Trailer
%%EOF
